{
	"content": [
		{
			"id": 97,
			"roomId": "PC35",
			"languageOfMovieId": 12,
			"dimensionId": 5,
			"showDate": "2023-09-17",
			"startTime": "16:00:00",
			"price": 70000.0,
			"movieId": "MP08",
			"roomName": "Phòng 5",
			"dimensionName": "Full HD",
			"branchId": "cn4",
			"branchName": "Cộng Hòa",
			"branchAddress": "60, Cộng Hòa, quận Tân Bình",
			"movieName": null,
			"languageName": null,
			"movies": [],
			"ticketNumber": 0
		},
		{
			"id": 99,
			"roomId": "PC35",
			"languageOfMovieId": 12,
			"dimensionId": 5,
			"showDate": "2023-09-17",
			"startTime": "18:00:00",
			"price": 50000.0,
			"movieId": "MP08",
			"roomName": "Phòng 5",
			"dimensionName": "Full HD",
			"branchId": "cn4",
			"branchName": "Cộng Hòa",
			"branchAddress": "60, Cộng Hòa, quận Tân Bình",
			"movieName": null,
			"languageName": null,
			"movies": [],
			"ticketNumber": 0
		},
		{
			"id": 98,
			"roomId": "PC35",
			"languageOfMovieId": 12,
			"dimensionId": 5,
			"showDate": "2023-09-17",
			"startTime": "17:00:00",
			"price": 50000.0,
			"movieId": "MP08",
			"roomName": "Phòng 5",
			"dimensionName": "Full HD",
			"branchId": "cn4",
			"branchName": "Cộng Hòa",
			"branchAddress": "60, Cộng Hòa, quận Tân Bình",
			"movieName": null,
			"languageName": null,
			"movies": [],
			"ticketNumber": 0
		},
		{
			"id": 104,
			"roomId": "PC35",
			"languageOfMovieId": 12,
			"dimensionId": 5,
			"showDate": "2023-09-17",
			"startTime": "23:00:00",
			"price": 50000.0,
			"movieId": "MP08",
			"roomName": "Phòng 5",
			"dimensionName": "Full HD",
			"branchId": "cn4",
			"branchName": "Cộng Hòa",
			"branchAddress": "60, Cộng Hòa, quận Tân Bình",
			"movieName": null,
			"languageName": null,
			"movies": [],
			"ticketNumber": 0
		}
	],
	"pageable": {
		"sort": {
			"empty": true,
			"sorted": false,
			"unsorted": true
		},
		"offset": 4,
		"pageSize": 4,
		"pageNumber": 1,
		"paged": true,
		"unpaged": false
	},
	"last": true,
	"totalPages": 2,
	"totalElements": 8,
	"size": 4,
	"number": 1,
	"sort": {
		"empty": true,
		"sorted": false,
		"unsorted": true
	},
	"first": false,
	"numberOfElements": 4,
	"empty": false
}